<?xml version="1.0" encoding="UTF-8" standalone="no"?>
<svg
   xmlns:dc="http://purl.org/dc/elements/1.1/"
   xmlns:cc="http://creativecommons.org/ns#"
   xmlns:rdf="http://www.w3.org/1999/02/22-rdf-syntax-ns#"
   xmlns:svg="http://www.w3.org/2000/svg"
   xmlns="http://www.w3.org/2000/svg"
   xmlns:sodipodi="http://sodipodi.sourceforge.net/DTD/sodipodi-0.dtd"
   xmlns:inkscape="http://www.inkscape.org/namespaces/inkscape"
   height="32px"
   version="1.1"
   viewBox="0 0 32 32"
   width="32px"
   id="svg2"
   inkscape:version="0.91 r13725"
   sodipodi:docname="folder-icon.svg">
  <metadata
     id="metadata15">
    <rdf:RDF>
      <cc:Work
         rdf:about="">
        <dc:format>image/svg+xml</dc:format>
        <dc:type
           rdf:resource="http://purl.org/dc/dcmitype/StillImage" />
      </cc:Work>
    </rdf:RDF>
  </metadata>
  <sodipodi:namedview
     pagecolor="#ffffff"
     bordercolor="#666666"
     borderopacity="1"
     objecttolerance="10"
     gridtolerance="10"
     guidetolerance="10"
     inkscape:pageopacity="0"
     inkscape:pageshadow="2"
     inkscape:window-width="1855"
     inkscape:window-height="1056"
     id="namedview13"
     showgrid="false"
     inkscape:zoom="10.429825"
     inkscape:cx="2.5145397"
     inkscape:cy="18.252002"
     inkscape:window-x="65"
     inkscape:window-y="24"
     inkscape:window-maximized="1"
     inkscape:current-layer="g3372" />
  <title
     id="title4" />
  <desc
     id="desc6" />
  <defs
     id="defs8" />
  <g
     id="g3372">
    <g
       style="fill:#25aae1;fill-rule:evenodd;stroke:none;stroke-width:1;fill-opacity:1"
       transform="matrix(-1.0946815,0,0,1,34.019871,-0.81355932)"
       id="Page-1">
      <g
         style="fill:#25aae1;fill-opacity:1"
         id="icon-94-folder">
        <path
           style="fill:#25aae1;fill-opacity:1"
           inkscape:connector-curvature="0"
           id="folder"
           d="M 17,9 15,5 4.0027601,5 C 2.8966663,5 2,5.8896739 2,6.991155 l 0,18.01769 C 2,26.108529 2.8997127,27 3.9932874,27 L 29.006713,27 C 30.107575,27 31,26.107377 31,25.004911 L 31,10.995089 C 31,9.8932319 30.10294,9 28.994141,9 L 17,9 17,9 Z M 16.359985,10 14.400024,6 3.9917348,6 C 3.4440148,6 3,6.4553056 3,6.9918031 L 3,25.008197 C 3,25.555955 3.4461086,26 3.9929654,26 L 29.007035,26 C 29.555434,26 30,25.555369 30,24.999128 L 30,11.000872 C 30,10.448106 29.546172,10 28.997017,10 l -12.637032,0 0,0 z" />
      </g>
    </g>
    <g
       style="fill:#25aae1;fill-opacity:1;fill-rule:evenodd;stroke:none;stroke-width:1"
       transform="matrix(-1.0583136,0,0,0.93462803,33.330131,0.31508593)"
       id="Page-1-8">
      <g
         style="fill:#25aae1;fill-opacity:1"
         id="icon-94-folder-4">
        <path
           style="fill:#25aae1;fill-opacity:1"
           inkscape:connector-curvature="0"
           id="folder-9"
           d="M 17,9 15,5 4.0027601,5 C 2.8966663,5 2,5.8896739 2,6.991155 l 0,18.01769 C 2,26.108529 2.8997127,27 3.9932874,27 L 29.006713,27 C 30.107575,27 31,26.107377 31,25.004911 L 31,10.995089 C 31,9.8932319 30.10294,9 28.994141,9 L 17,9 17,9 Z M 16.359985,10 14.400024,6 3.9917348,6 C 3.4440148,6 3,6.4553056 3,6.9918031 L 3,25.008197 C 3,25.555955 3.4461086,26 3.9929654,26 L 29.007035,26 C 29.555434,26 30,25.555369 30,24.999128 L 30,11.000872 C 30,10.448106 29.546172,10 28.997017,10 l -12.637032,0 0,0 z" />
      </g>
    </g>
  </g>
</svg>
