[{
  "_id": 0,
  "name": "A.Ramsey",
  "photo": "css/images/face.jpg",
  "role": "Lead Client"
}, {
  "_id": 1,
  "name": "W.Hovert",
  "photo": "css/images/face2.jpg",
  "role": "Lead Client"
}, {
  "_id": 2,
  "name": "T.Willson",
  "photo": "css/images/face3.jpg",
  "role": "Lead Client"
}, {
  "_id": 3,
  "name": "Simon K Williams",
  "photo": "css/images/face4.jpg",
  "role": "Lead Developer"
}, {
  "_id": 4,
  "photo": "css/images/face5.jpg",
  "name": "W.Johnson",
  "role": "Lead Developer"
}, {
  "_id": 5,
  "name": "A.Ambers",
  "photo": "css/images/face6.png",
  "role": "Lead Developer"
}]
